[gd_scene load_steps=4 format=1]

[ext_resource path="res://scenes/edit.gd" type="Script" id=1]
[ext_resource path="res://res/fonts/Hack-Regular.otf" type="DynamicFontData" id=2]

[sub_resource type="DynamicFont" id=1]

font/size = 14
font/use_mipmaps = false
font/use_filter = false
font/font = ExtResource( 2 )

[node name="edit" type="Panel"]

anchor/right = 1
anchor/bottom = 1
focus/ignore_mouse = false
focus/stop_mouse = true
size_flags/horizontal = 2
size_flags/vertical = 2
margin/left = 0.0
margin/top = 0.0
margin/right = 0.0
margin/bottom = 0.0
script/script = ExtResource( 1 )
__meta__ = { "_edit_lock_":true }

[node name="back-btn" type="Button" parent="."]

focus/ignore_mouse = false
focus/stop_mouse = true
size_flags/horizontal = 2
size_flags/vertical = 2
margin/left = 10.0
margin/top = 14.0
margin/right = 80.0
margin/bottom = 49.0
toggle_mode = false
enabled_focus_mode = 2
shortcut = null
text = "<"
flat = false

[node name="delete-btn" type="Button" parent="."]

anchor/left = 1
anchor/right = 1
focus/ignore_mouse = false
focus/stop_mouse = true
size_flags/horizontal = 2
size_flags/vertical = 2
margin/left = 81.0
margin/top = 14.0
margin/right = 11.0
margin/bottom = 49.0
toggle_mode = false
enabled_focus_mode = 2
shortcut = null
text = "delete"
flat = false

[node name="label-label" type="Label" parent="."]

anchor/right = 1
focus/ignore_mouse = true
focus/stop_mouse = true
size_flags/horizontal = 2
size_flags/vertical = 0
margin/left = 85.0
margin/top = 53.0
margin/right = 85.0
margin/bottom = 66.0
text = "label"
align = 1
percent_visible = 1.0
lines_skipped = 0
max_lines_visible = -1

[node name="label-input" type="LineEdit" parent="."]

anchor/right = 1
focus/ignore_mouse = false
focus/stop_mouse = true
size_flags/horizontal = 2
size_flags/vertical = 2
margin/left = 78.0
margin/top = 72.0
margin/right = 80.0
margin/bottom = 105.0
placeholder/alpha = 0.6
focus_mode = 2
caret/caret_blink = false
caret/caret_blink_speed = 0.65

[node name="url-label" type="Label" parent="."]

anchor/right = 1
focus/ignore_mouse = true
focus/stop_mouse = true
size_flags/horizontal = 2
size_flags/vertical = 0
margin/left = 85.0
margin/top = 117.0
margin/right = 85.0
margin/bottom = 130.0
text = "site url"
align = 1
percent_visible = 1.0
lines_skipped = 0
max_lines_visible = -1

[node name="url-input" type="LineEdit" parent="."]

anchor/right = 1
focus/ignore_mouse = false
focus/stop_mouse = true
size_flags/horizontal = 2
size_flags/vertical = 2
margin/left = 78.0
margin/top = 136.0
margin/right = 80.0
margin/bottom = 169.0
placeholder/alpha = 0.6
focus_mode = 2
caret/caret_blink = false
caret/caret_blink_speed = 0.65

[node name="username-label" type="Label" parent="."]

anchor/right = 1
focus/ignore_mouse = true
focus/stop_mouse = true
size_flags/horizontal = 2
size_flags/vertical = 0
margin/left = 86.0
margin/top = 181.0
margin/right = 87.0
margin/bottom = 194.0
text = "username"
align = 1
percent_visible = 1.0
lines_skipped = 0
max_lines_visible = -1

[node name="username-input" type="LineEdit" parent="."]

anchor/right = 1
focus/ignore_mouse = false
focus/stop_mouse = true
size_flags/horizontal = 2
size_flags/vertical = 2
margin/left = 78.0
margin/top = 199.0
margin/right = 80.0
margin/bottom = 232.0
placeholder/alpha = 0.6
focus_mode = 2
caret/caret_blink = false
caret/caret_blink_speed = 0.65

[node name="pass-widget" type="Container" parent="."]

anchor/right = 1
focus/ignore_mouse = false
focus/stop_mouse = true
size_flags/horizontal = 2
size_flags/vertical = 2
margin/left = 21.0
margin/top = 239.0
margin/right = 20.0
margin/bottom = 306.0

[node name="pass-label" type="Label" parent="pass-widget"]

anchor/left = 3
anchor/right = 3
focus/ignore_mouse = true
focus/stop_mouse = true
size_flags/horizontal = 2
size_flags/vertical = 0
margin/left = 114.5
margin/top = 4.0
margin/right = -115.5
margin/bottom = 17.0
text = "passkey"
align = 1
percent_visible = 1.0
lines_skipped = 0
max_lines_visible = -1

[node name="pass-input" type="LineEdit" parent="pass-widget"]

anchor/right = 1
focus/ignore_mouse = false
focus/stop_mouse = true
size_flags/horizontal = 2
size_flags/vertical = 2
margin/left = 57.0
margin/top = 24.0
margin/right = 60.0
margin/bottom = 57.0
custom_fonts/font = SubResource( 1 )
placeholder/alpha = 0.6
secret = true
focus_mode = 2
caret/caret_blink = false
caret/caret_blink_speed = 0.65

[node name="pass-view-btn" type="Button" parent="pass-widget"]

focus/ignore_mouse = false
focus/stop_mouse = true
size_flags/horizontal = 2
size_flags/vertical = 2
margin/left = 5.0
margin/top = 25.0
margin/right = 45.0
margin/bottom = 55.0
toggle_mode = true
enabled_focus_mode = 2
shortcut = null
text = "<o>"
flat = false

[node name="copy-btn" type="Button" parent="pass-widget"]

anchor/left = 1
anchor/right = 1
focus/ignore_mouse = false
focus/stop_mouse = true
size_flags/horizontal = 2
size_flags/vertical = 2
margin/left = 46.0
margin/top = 25.0
margin/right = 6.0
margin/bottom = 55.0
toggle_mode = false
enabled_focus_mode = 2
shortcut = null
text = "copy"
flat = false

[node name="notes-label" type="Label" parent="."]

anchor/right = 1
focus/ignore_mouse = true
focus/stop_mouse = true
size_flags/horizontal = 2
size_flags/vertical = 0
margin/left = 86.0
margin/top = 309.0
margin/right = 84.0
margin/bottom = 323.0
text = "notes"
align = 1
percent_visible = 1.0
lines_skipped = 0
max_lines_visible = -1

[node name="notes-input" type="TextEdit" parent="."]

anchor/right = 1
anchor/bottom = 1
focus/ignore_mouse = false
focus/stop_mouse = true
size_flags/horizontal = 2
size_flags/vertical = 2
margin/left = 78.0
margin/top = 327.0
margin/right = 80.0
margin/bottom = 73.0
syntax_highlighting = false
show_line_numbers = false
highlight_all_occurrences = false
caret/block_caret = false
caret/caret_blink = true
caret/caret_blink_speed = 0.65

[node name="save-btn" type="Button" parent="."]

anchor/top = 1
anchor/right = 1
anchor/bottom = 1
focus/ignore_mouse = false
focus/stop_mouse = true
size_flags/horizontal = 2
size_flags/vertical = 2
margin/left = 79.0
margin/top = 50.0
margin/right = 80.0
margin/bottom = 15.0
toggle_mode = false
enabled_focus_mode = 2
shortcut = null
text = "save"
flat = false


